<?xml version="1.0" encoding="iso-8859-1"?>
<!-- Generator: Adobe Illustrator 19.0.0, SVG Export Plug-In . SVG Version: 6.00 Build 0)  -->
<svg version="1.1" id="Layer_1" xmlns="http://www.w3.org/2000/svg" xmlns:xlink="http://www.w3.org/1999/xlink" x="0px" y="0px"
	 viewBox="0 0 511.997 511.997" style="enable-background:new 0 0 511.997 511.997;" xml:space="preserve">
<g>
	<path style="fill:#68615B;" d="M293.601,104.46l85.466-0.007l-89.689-75.269c-18.359-15.408-40.089-9.587-48.287,12.935
		L111.648,397.677v54.472h288.7v-54.472L293.601,104.46z"/>
	<path style="fill:#68615B;" d="M255.998,491.416c-90.61,0-175.798-35.286-239.869-99.357c-10.636-10.636-10.636-27.881,0-38.517
		c10.637-10.636,27.881-10.636,38.517,0c111.026,111.025,291.676,111.025,402.704,0c10.637-10.636,27.881-10.636,38.517,0
		s10.636,27.881,0,38.517C431.795,456.13,346.607,491.416,255.998,491.416z"/>
</g>
<path style="fill:#B34FCC;" d="M409.815,391.837l-34.856-95.745c-32.303,26.735-73.755,42.803-118.962,42.803
	s-86.659-16.069-118.962-42.803l-34.856,95.745C195.525,451.775,316.469,451.775,409.815,391.837z"/>
<path style="fill:#FAB352;" d="M184.784,427.812c46.657,11.972,95.771,11.972,142.428,0c6.671-11.837,10.493-25.491,10.493-40.045
	c0-45.125-36.582-81.708-81.708-81.708s-81.708,36.582-81.708,81.708C174.29,402.32,178.113,415.975,184.784,427.812z
	 M255.998,338.742c27.076,0,49.024,21.949,49.024,49.025s-21.949,49.025-49.024,49.025c-27.076,0-49.025-21.949-49.025-49.025
	S228.922,338.742,255.998,338.742z"/>
<path style="fill:#440852;" d="M501.643,347.763c-6.688-6.687-15.579-10.369-25.035-10.369c-9.456,0-18.348,3.682-25.036,10.37
	c-11.716,11.716-24.311,22.238-37.627,31.528l-31.307-85.996c-0.909-2.496-2.973-4.394-5.538-5.09
	c-2.553-0.694-5.288-0.105-7.334,1.579L305.272,112.63l73.796-0.005c3.434,0,6.503-2.148,7.677-5.376
	c1.174-3.227,0.205-6.845-2.426-9.053L294.63,22.926c-10.82-9.08-23.693-12.506-35.321-9.39
	c-11.625,3.114-21.064,12.513-25.897,25.788l-41.918,115.141c-1.544,4.24,0.642,8.929,4.883,10.473
	c4.238,1.546,8.929-0.642,10.473-4.883l41.918-115.141c3.028-8.315,8.273-13.852,14.771-15.593
	c6.492-1.742,13.807,0.433,20.586,6.123l72.497,60.842l-57.3,0.004l-2.009-5.518c-1.545-4.241-6.234-6.429-10.473-4.882
	c-4.241,1.544-6.427,6.233-4.883,10.473l3.961,10.882c0.003,0.012,70.189,192.797,70.189,192.797
	c-12.587,8.55-26.162,15.411-40.549,20.496c-15.871-14.077-36.729-22.649-59.56-22.649c-22.832,0-43.691,8.573-59.56,22.649
	c-14.387-5.084-27.961-11.946-40.55-20.496l39.782-109.273c1.544-4.241-0.642-8.929-4.882-10.473
	c-4.24-1.545-8.93,0.642-10.473,4.882l-38.083,104.609c-2.045-1.683-4.779-2.275-7.335-1.579c-2.563,0.696-4.628,2.594-5.536,5.09
	l-31.307,85.996c-13.317-9.291-25.912-19.814-37.628-31.529c-6.688-6.687-15.579-10.369-25.036-10.369s-18.348,3.682-25.036,10.37
	c-13.804,13.805-13.804,36.267,0,50.073C75.968,463.452,163.207,499.587,256,499.587c92.794,0,180.032-36.135,245.647-101.75
	C515.448,384.032,515.448,361.57,501.643,347.763z M399.891,388.466c-18.36,11.208-37.917,20.183-58.335,26.78
	c2.841-8.848,4.319-18.129,4.319-27.48c0-20.378-6.827-39.184-18.3-54.277c15.499-6.113,30.079-14.162,43.547-24.047
	L399.891,388.466z M329.534,387.766c0,11.497-2.721,22.863-7.879,33.087c-7.435,1.796-14.964,3.288-22.573,4.467
	c8.776-10.055,14.11-23.19,14.11-37.553c0-31.538-25.658-57.195-57.195-57.195c-31.538,0-57.195,25.657-57.195,57.195
	c0,14.364,5.334,27.497,14.11,37.553c-7.609-1.179-15.139-2.67-22.574-4.467c-5.157-10.222-7.878-21.588-7.878-33.087
	c0-40.549,32.988-73.537,73.537-73.537S329.534,347.218,329.534,387.766z M255.998,428.62c-22.527,0-40.854-18.326-40.854-40.854
	s18.326-40.854,40.854-40.854s40.854,18.326,40.854,40.854S278.524,428.62,255.998,428.62z M140.872,309.441
	c13.468,9.887,28.047,17.934,43.547,24.047c-11.473,15.093-18.3,33.899-18.3,54.277c0,9.351,1.477,18.631,4.319,27.48
	c-20.418-6.596-39.975-15.572-58.334-26.78L140.872,309.441z M490.089,386.281c-62.528,62.528-145.663,96.964-234.091,96.964
	S84.434,448.809,21.906,386.281c-7.433-7.433-7.433-19.529,0-26.962c3.602-3.601,8.39-5.583,13.482-5.583s9.88,1.983,13.482,5.583
	c55.241,55.241,128.8,85.662,207.129,85.662s151.889-30.421,207.129-85.661c3.602-3.601,8.39-5.583,13.482-5.583
	c5.092,0,9.88,1.983,13.481,5.583C497.522,366.753,497.522,378.848,490.089,386.281z"/>
<g>
</g>
<g>
</g>
<g>
</g>
<g>
</g>
<g>
</g>
<g>
</g>
<g>
</g>
<g>
</g>
<g>
</g>
<g>
</g>
<g>
</g>
<g>
</g>
<g>
</g>
<g>
</g>
<g>
</g>
</svg>
